<svg width="22" height="22" viewBox="0 0 22 22" fill="none" xmlns="http://www.w3.org/2000/svg">
<path fill-rule="evenodd" clip-rule="evenodd" d="M1.97656 10.9999C1.97656 6.01617 6.01666 1.97607 11.0004 1.97607C15.9841 1.97607 20.0242 6.01617 20.0242 10.9999C20.0242 15.9836 15.9841 20.0237 11.0004 20.0237C6.01666 20.0237 1.97656 15.9836 1.97656 10.9999ZM11.0004 0.976074C5.46437 0.976074 0.976562 5.46389 0.976562 10.9999C0.976562 16.5359 5.46437 21.0237 11.0004 21.0237C16.5364 21.0237 21.0242 16.5359 21.0242 10.9999C21.0242 5.46389 16.5364 0.976074 11.0004 0.976074ZM11.5004 5.2856C11.5004 5.00946 11.2765 4.7856 11.0004 4.7856C10.7242 4.7856 10.5004 5.00946 10.5004 5.2856V10.9999C10.5004 11.1893 10.6074 11.3624 10.7768 11.4471L14.5863 13.3519C14.8333 13.4754 15.1336 13.3752 15.2571 13.1283C15.3806 12.8813 15.2805 12.5809 15.0335 12.4574L11.5004 10.6909V5.2856Z" fill="#EBEBEB"/>
</svg>
