{
    "packageName": "soniksnetworkapiclient",
    "projectName": "soniks-network-api-client",
    "generateSourceCodeOnly": true,
    "appName": "SONIKS Network",
    "appDescription": "SONIKS Network is a web application implementing a global scheduling and monitoring network for ground station operations.",
    "infoUrl": "https://gitlab.com/space-education-development/soniks/soniks-network",
    "infoEmail": "https://gitlab.com/space-education-development/soniks/soniks-network",
    "licenseInfo": "Copyright (C) 2023 Libre Space Foundation <https://libre.space/>",
    "licenseUrl": "https://www.gnu.org/licenses/agpl-3.0.html"
}
